Meta-analysis in Plant Pathology
…
# Unique authors
nrow(authors)

[1] 329

#paper per author
authors

# A tibble: 329 × 2
   name             n
   <chr>        <int>
 1 Madden LV       16
 2 Paul PA         16
 3 Del Ponte EM    10
 4 Bradley CA       8
 5 Canteri MG       8
 6 Godoy CV         8
 7 Wise KA          8
 8 Campos HD        6
 9 Chilvers MI      6
10 Esker PD         6
# ℹ 319 more rows

write_csv(authors, "authors.csv")

summary(authors$n)

   Min. 1st Qu.  Median    Mean 3rd Qu.    Max. 
  1.000   1.000   1.000   1.781   2.000  16.000 

authors |> 
  filter(n == 1)

# A tibble: 235 × 2
   name              n
   <chr>         <int>
 1 Abdalla IIH       1
 2 Amaral DR         1
 3 Amiri A           1
 4 Amorim L          1
 5 ArchMiller AA     1
 6 Arneson N         1
 7 Arslan M          1
 8 Ascari JP         1
 9 Barbetti MJ       1
10 Barrios E         1
# ℹ 225 more rows
…
write_csv(es, "es.csv")

Effect-size by common response variable

es <- dat %>% 
  dplyr::select(code, effect_size_1, effect_size_2, effect_size_3, effect_size_4, effect_size_5) %>% 
  pivot_longer(names_to = "type", values_to = "value", 2:6)

rv <- dat %>% 
  dplyr::select(code, response1 , response2, response3, response4, response5) %>% 
  pivot_longer(names_to = "type", values_to = "Variable", 2:6)

rv

# A tibble: 425 × 3
    code type      Variable
   <dbl> <chr>     <chr>   
 1     1 response1 <NA>    
 2     1 response2 <NA>    
 3     1 response3 <NA>    
 4     1 response4 <NA>    
 5     1 response5 <NA>    
 6     2 response1 severity
 7     2 response2 yield   
 8     2 response3 <NA>    
 9     2 response4 <NA>    
10     2 response5 <NA>    
# ℹ 415 more rows
…
