Meta-analysis in Plant Pathology
…
Within an authorship network, co-authors (present in a same article) are linked together. Authors from this articles can be connected to authors from other articles whenever they appear together. Therefore, two articles are linked by a common author. Each author is then considered a node in the network and the connections between them are the edges or links. There are several statistics to calculate in a network analysis.

For now, let’s visualize the authorship network and also the community structure which was defined via a function that tries to find densely connected subgraphs, also called communities. We will use a random walk algorithm for determining the communities. The idea is that short random walks tend to stay in the same community. In the network below, there are 15 communities or subgraphs which are represented by the colors.

# igraph
library(igraph)
net=graph.edgelist(as.matrix(author_edge_list), directed=FALSE)

degree <- enframe(degree(net))

degree %>% 
  arrange(-value)

# A tibble: 325 × 2
   name         value
   <chr>        <dbl>
 1 Godoy CV       132
 2 Campos HD      124
 3 Nunes J        124
 4 Martins MC     124
 5 Venancio WS    124
 6 Paul PA        120
 7 Bradley CA     116
 8 Utiamada CM    115
 9 Wise KA        115
10 Del Ponte EM   114
# … with 315 more rows
…
Effect-size by common response variable

es <- dat %>% 
  dplyr::select(code, effect_size_1, effect_size_2, effect_size_3, effect_size_4) %>% 
  pivot_longer(names_to = "type", values_to = "value", 2:5)

rv <- dat %>% 
  dplyr::select(code, response1 , response2, response3, response4) %>% 
  pivot_longer(names_to = "type", values_to = "Variable", 2:5)

rv

# A tibble: 336 × 3
    code type      Variable
   <dbl> <chr>     <chr>   
 1     1 response1 <NA>    
 2     1 response2 <NA>    
 3     1 response3 <NA>    
 4     1 response4 <NA>    
 5     2 response1 index   
 6     2 response2 yield   
 7     2 response3 <NA>    
 8     2 response4 <NA>    
 9     3 response1 index   
10     3 response2 yield   
# … with 326 more rows
…
